{
  "project_info": {
    "project_number": "991132681311",
    "project_id": "mabroook",
    "storage_bucket": "mabroook.appspot.com"
  },
  "client": [
    {
      "client_info": {
        "mobilesdk_app_id": "1:991132681311:android:dea8e8c7541e07c42347ea",
        "android_client_info": {
          "package_name": "com.vouchers.mabroook"
        }
      },
      "oauth_client": [
        {
          "client_id": "991132681311-op96ofi2ht06tn2fusei0b9op158ovgj.apps.googleusercontent.com",
          "client_type": 1,
          "android_info": {
            "package_name": "com.vouchers.mabroook",
            "certificate_hash": "67e578100efa4491db8cb297543dba171a3e5b93"
          }
        },
        {
          "client_id": "991132681311-6sa15nl15cvp78oj3bq4rde35abgspl3.apps.googleusercontent.com",
          "client_type": 3
        }
      ],
      "api_key": [
        {
          "current_key": "AIzaSyBlSNmvOhRWUlVH197VBLTl92sQ9G0vAyU"
        }
      ],
      "services": {
        "appinvite_service": {
          "other_platform_oauth_client": [
            {
              "client_id": "991132681311-6sa15nl15cvp78oj3bq4rde35abgspl3.apps.googleusercontent.com",
              "client_type": 3
            }
          ]
        }
      }
    }
  ],
  "configuration_version": "1"
}